<svg width="30" height="52" viewBox="0 0 30 52" fill="none" xmlns="http://www.w3.org/2000/svg">
<path fill-rule="evenodd" clip-rule="evenodd" d="M15 52C11.0119 51.9844 7.19299 50.4149 4.38094 47.6358C1.56889 44.8567 -0.00663104 41.095 2.09787e-05 37.1758V14.7406C2.09787e-05 10.8312 1.58035 7.08181 4.39339 4.3174C7.20644 1.553 11.0218 0 15 0C18.9783 0 22.7936 1.553 25.6066 4.3174C28.4197 7.08181 30 10.8312 30 14.7406V37.1758C30.0067 41.095 28.4311 44.8567 25.6191 47.6358C22.8071 50.4149 18.9881 51.9844 15 52ZM15 1.51827C11.4429 1.53232 8.03672 2.93225 5.52859 5.41101C3.02045 7.88978 1.61514 11.245 1.62099 14.7406V37.1758C1.60572 38.9119 1.94049 40.6338 2.60598 42.242C3.27146 43.8503 4.25449 45.3131 5.49831 46.546C6.74214 47.779 8.22212 48.7576 9.85287 49.4254C11.4836 50.0933 13.2328 50.4372 14.9995 50.4372C16.7662 50.4372 18.5154 50.0933 20.1461 49.4254C21.7769 48.7576 23.2569 47.779 24.5007 46.546C25.7445 45.3131 26.7275 43.8503 27.393 42.242C28.0585 40.6338 28.3933 38.9119 28.378 37.1758V14.7406C28.3841 11.2451 26.9791 7.88987 24.4711 5.41107C21.9631 2.93228 18.557 1.53232 15 1.51827ZM16.622 15.0413C16.6231 15.4652 16.4528 15.8721 16.1486 16.1727C15.8445 16.4733 15.4314 16.6428 15 16.6441C14.7864 16.6436 14.575 16.6017 14.3778 16.5209C14.1807 16.44 14.0017 16.3219 13.8511 16.173C13.7005 16.0242 13.5811 15.8476 13.5 15.6534C13.4188 15.4592 13.3774 15.2512 13.378 15.0413V13.4395C13.3774 13.2296 13.4188 13.0216 13.5 12.8274C13.5811 12.6332 13.7005 12.4567 13.8511 12.3078C14.0017 12.159 14.1807 12.0407 14.3778 11.9599C14.575 11.8791 14.7864 11.8372 15 11.8367C15.4314 11.838 15.8445 12.0076 16.1486 12.3081C16.4528 12.6087 16.6231 13.0156 16.622 13.4395V15.0413Z" fill="white"/>
</svg>
